<?xml version="1.0" encoding="utf-8"?>
<!-- Generator: Adobe Illustrator 16.0.0, SVG Export Plug-In . SVG Version: 6.00 Build 0)  -->
<!DOCTYPE svg PUBLIC "-//W3C//DTD SVG 1.1//EN" "http://www.w3.org/Graphics/SVG/1.1/DTD/svg11.dtd">
<svg version="1.1" id="Layer_1" xmlns="http://www.w3.org/2000/svg" xmlns:xlink="http://www.w3.org/1999/xlink" x="0px" y="0px"
	 width="102px" height="100px" viewBox="-1.5 0.5 102 100" enable-background="new -1.5 0.5 102 100" xml:space="preserve">
<g>
	<path fill="#FFFFFF" d="M88.528,15.5L98.5,28.192V41.5c0,4.962-4.037,9-9,9c-3.507,0-6.718-2.068-8.181-5.269
		c-0.326-0.712-1.036-1.168-1.819-1.168s-1.493,0.457-1.819,1.168C76.218,48.432,73.007,50.5,69.5,50.5s-6.718-2.068-8.181-5.269
		c-0.326-0.712-1.036-1.168-1.819-1.168s-1.493,0.457-1.819,1.168C56.218,48.432,53.007,50.5,49.5,50.5
		c-3.506,0-6.718-2.068-8.181-5.269c-0.325-0.712-1.036-1.168-1.819-1.168s-1.494,0.457-1.819,1.168
		C36.218,48.432,33.006,50.5,29.5,50.5s-6.718-2.068-8.181-5.269c-0.325-0.712-1.036-1.168-1.819-1.168s-1.494,0.457-1.819,1.168
		C16.218,48.432,13.006,50.5,9.5,50.5c-4.962,0-9-4.038-9-9V28.192L10.472,15.5H88.528 M89.5,13.5h-80l-11,14v14
		c0,6.075,4.926,11,11,11c4.444,0,8.265-2.643,10-6.438c1.735,3.795,5.556,6.438,10,6.438s8.265-2.643,10-6.438
		c1.735,3.795,5.556,6.438,10,6.438s8.266-2.643,10-6.438c1.734,3.795,5.556,6.438,10,6.438s8.266-2.643,10-6.438
		c1.734,3.795,5.556,6.438,10,6.438c6.074,0,11-4.925,11-11v-14L89.5,13.5L89.5,13.5z"/>
	<g>
		<path fill="#FFFFFF" d="M48.5,60.5v2v27v2h2h28h2v-2v-27v-2h-2h-28H48.5z M78.5,89.5h-28v-27h28V89.5z"/>
		<polygon fill="#FFFFFF" points="91.5,51.5 91.5,98.5 41.5,98.5 41.5,62.5 41.5,60.5 39.5,60.5 20.5,60.5 18.5,60.5 18.5,62.5 
			18.5,98.5 7.5,98.5 7.5,51.5 5.5,51.5 5.5,100.5 20.5,100.5 20.5,62.5 39.5,62.5 39.5,100.5 93.5,100.5 93.5,51.5 		"/>
	</g>
	<path fill="#FFFFFF" d="M88.5,2.5v11h-78v-11H88.5 M90.5,0.5h-82v15h82V0.5L90.5,0.5z"/>
	<rect x="-0.5" y="26.5" fill="#FFFFFF" width="100" height="2"/>
	<path fill="#FFFFFF" d="M59.5,82.5c-0.256,0-0.512-0.098-0.707-0.293c-0.391-0.391-0.391-1.023,0-1.414l10-10
		c0.391-0.391,1.023-0.391,1.414,0s0.391,1.023,0,1.414l-10,10C60.012,82.402,59.756,82.5,59.5,82.5z"/>
	<path fill="#FFFFFF" d="M58.5,76.5c-0.256,0-0.512-0.098-0.707-0.293c-0.391-0.391-0.391-1.023,0-1.414l5-5
		c0.391-0.391,1.023-0.391,1.414,0s0.391,1.023,0,1.414l-5,5C59.012,76.402,58.756,76.5,58.5,76.5z"/>
	<path fill="#FFFFFF" d="M65.5,83.5c-0.256,0-0.512-0.098-0.707-0.293c-0.391-0.391-0.391-1.023,0-1.414l5-5
		c0.391-0.391,1.023-0.391,1.414,0s0.391,1.023,0,1.414l-5,5C66.012,83.402,65.756,83.5,65.5,83.5z"/>
</g>
</svg>
